<svg width="30" height="19" viewBox="0 0 30 19" fill="none" xmlns="http://www.w3.org/2000/svg">
<path fill-rule="evenodd" clip-rule="evenodd" d="M16.4392 18.1933C16.4392 18.1933 16.9687 18.1318 17.2394 17.8254C17.4883 17.5439 17.4803 17.0155 17.4803 17.0155C17.4803 17.0155 17.446 14.5413 18.5377 14.1768C19.6143 13.8178 20.9965 16.5682 22.4614 17.6258C23.5692 18.426 24.411 18.2507 24.411 18.2507L28.3284 18.1933C28.3284 18.1933 30.3775 18.0602 29.4058 16.3658C29.3263 16.2273 28.8398 15.1124 26.4931 12.8215C24.0366 10.4236 24.3659 10.8116 27.3247 6.66408C29.1266 4.13821 29.8469 2.59625 29.6218 1.93575C29.4073 1.30654 28.0819 1.47275 28.0819 1.47275L23.6713 1.50154C23.6713 1.50154 23.3441 1.45461 23.1018 1.60724C22.8647 1.75629 22.7126 2.10479 22.7126 2.10479C22.7126 2.10479 22.0142 4.05935 21.0836 5.72178C19.1196 9.22906 18.3341 9.41471 18.0131 9.19657C17.2661 8.68903 17.4528 7.15761 17.4528 6.06942C17.4528 2.67023 17.9431 1.25309 16.4982 0.886234C16.0188 0.764454 15.6657 0.683956 14.4395 0.67092C12.8657 0.653973 11.5339 0.676025 10.7796 1.0645C10.2778 1.32305 9.8907 1.89871 10.1266 1.93195C10.4182 1.9728 11.0783 2.11935 11.4283 2.62015C11.8803 3.26707 11.8645 4.7193 11.8645 4.7193C11.8645 4.7193 12.1243 8.72054 11.2579 9.21754C10.6635 9.55844 9.84794 8.86241 8.09693 5.68028C7.19994 4.05044 6.52244 2.24851 6.52244 2.24851C6.52244 2.24851 6.39198 1.91185 6.15896 1.73152C5.87635 1.51327 5.48146 1.44396 5.48146 1.44396L1.29007 1.47275C1.29007 1.47275 0.661016 1.49133 0.429848 1.77899C0.224193 2.03515 0.413424 2.56442 0.413424 2.56442C0.413424 2.56442 3.69461 10.6384 7.41024 14.7071C10.8175 18.4381 14.6859 18.1933 14.6859 18.1933H16.4392Z" fill="#4C77A6"/>
</svg>
