<svg width="14" height="13" viewBox="0 0 14 13" fill="none" xmlns="http://www.w3.org/2000/svg">
<path d="M0 6.33333H12M12 6.33333L6.66667 1M12 6.33333L6.66667 11.6667" stroke="#4F4F4F" stroke-width="1.5"/>
</svg>
