<svg width="20" height="16" viewBox="0 0 20 16" fill="none" xmlns="http://www.w3.org/2000/svg">
<path d="M17.3187 4.36606C17.56 4.21469 17.7065 3.94987 17.7065 3.66503C17.7065 3.01282 16.9871 2.61692 16.4361 2.96586L10.9625 6.43222C10.3744 6.8046 9.62441 6.8046 9.03638 6.43222L3.56271 2.96586C3.0117 2.61692 2.29237 3.01282 2.29237 3.66503C2.29237 3.94987 2.43885 4.21469 2.68014 4.36606L9.04283 8.35775C9.62776 8.72472 10.3711 8.72472 10.956 8.35775L17.3187 4.36606ZM17.7065 0.199982C18.2173 0.199982 18.6529 0.397642 19.0135 0.792964C19.4041 1.18829 19.5994 1.64443 19.5994 2.16139V13.8386C19.5994 14.3555 19.4041 14.8117 19.0135 15.207C18.6529 15.6023 18.2173 15.8 17.7065 15.8H2.29237C1.78157 15.8 1.33087 15.6023 0.940259 15.207C0.579696 14.8117 0.399414 14.3555 0.399414 13.8386V2.16139C0.399414 1.64443 0.579696 1.18829 0.940259 0.792964C1.33087 0.397642 1.78157 0.199982 2.29237 0.199982H17.7065Z" fill="#2B4DA1"/>
</svg>
